<?xml version="1.0" encoding="utf-8"?>
<!-- Generator: Adobe Illustrator 18.0.0, SVG Export Plug-In . SVG Version: 6.00 Build 0)  -->
<!DOCTYPE svg PUBLIC "-//W3C//DTD SVG 1.1//EN" "http://www.w3.org/Graphics/SVG/1.1/DTD/svg11.dtd">
<svg version="1.1" id="Calque_1" xmlns="http://www.w3.org/2000/svg" xmlns:xlink="http://www.w3.org/1999/xlink" x="0px" y="0px"
	 width="128px" height="128px" viewBox="0 0 128 128" style="enable-background:new 0 0 128 128;" xml:space="preserve">
<style type="text/css">
	.st0{fill:#C3DFE3;}
	.st1{opacity:0.15;}
	.st2{fill:#E6E6E6;}
	.st3{fill:#4D4D4D;}
	.st4{fill:#7AABCD;}
	.st5{fill:#90BDDA;}
	.st6{fill:#FFFFFF;}
	.st7{fill:#FFFFFF;stroke:#000000;stroke-width:0.5;stroke-miterlimit:10;}
	.st8{stroke:#000000;stroke-width:0.5;stroke-miterlimit:10;}
</style>
<circle class="st0" cx="64" cy="64" r="64"/>
<path class="st1" d="M126.3,78.5l-28-28L28.1,88.2L62.4,128c0.5,0,1.1,0,1.6,0C94.4,128,119.8,106.9,126.3,78.5z"/>
<path class="st2" d="M47,27.4L47,27.4c0.5-0.3,1.2-0.1,1.5,0.4l13.1,22.6c0.3,0.5,0.1,1.2-0.4,1.5h0c-0.5,0.3-1.2,0.1-1.5-0.4
	L46.6,28.8C46.3,28.3,46.5,27.7,47,27.4z"/>
<path class="st2" d="M81.8,27.4L81.8,27.4c-0.5-0.3-1.2-0.1-1.5,0.4L67.2,50.4c-0.3,0.5-0.1,1.2,0.4,1.5l0,0
	c0.5,0.3,1.2,0.1,1.5-0.4l13.1-22.6C82.4,28.3,82.3,27.7,81.8,27.4z"/>
<path class="st3" d="M65.7,63.6h-3c-4.5,0-8.1-3.6-8.1-8.1v0c0-4.5,3.6-8.1,8.1-8.1h3c4.5,0,8.1,3.6,8.1,8.1v0
	C73.7,60,70.1,63.6,65.7,63.6z"/>
<path class="st3" d="M39.4,87.6l-5.3,7.5c-0.4,0.5,0.2,1.2,0.8,0.9l12-7.2c0.5-0.3,0.3-1.1-0.3-1.1l-6.7-0.3
	C39.7,87.3,39.5,87.4,39.4,87.6z"/>
<path class="st3" d="M88.5,87.6l5.3,7.5c0.4,0.5-0.2,1.2-0.8,0.9l-12-7.2c-0.5-0.3-0.3-1.1,0.3-1.1l6.7-0.3
	C88.2,87.3,88.4,87.4,88.5,87.6z"/>
<path class="st3" d="M96.3,89H30c-1.4,0-2.6-1.1-2.6-2.6V52.1c0-1.4,1.1-2.6,2.6-2.6h66.4c1.4,0,2.6,1.1,2.6,2.6v34.4
	C98.9,87.9,97.8,89,96.3,89z"/>
<path class="st2" d="M86.6,85H41.7c-4.3,0-7.7-3.4-7.7-7.7V61.2c0-4.3,3.4-7.7,7.7-7.7h44.9c4.3,0,7.7,3.4,7.7,7.7v16.1
	C94.3,81.6,90.9,85,86.6,85z"/>
<path class="st4" d="M91,59.2v20.2c0,2.1-1.2,4.6-3.3,4.6H41.3c-2.1,0-4.3-2.5-4.3-4.6V59.2c0-1.8,1.5-3.1,3.3-3.4
	c0.3-0.1,0.7,0.3,1,0.3h46.4C89.8,56,91,57.1,91,59.2z"/>
<polygon class="st5" points="80.2,84 57.7,84 45.8,56 68.3,56 "/>
<path class="st5" d="M55.8,84h-3.9L40.1,56.1c0.3-0.1,0.5-0.1,0.8-0.1h3L55.8,84z"/>
<polygon class="st5" points="86.9,84 83,84 71.1,56 75,56 "/>
<path class="st6" d="M64,59.4c-5,0-9.1,4.1-9.1,9.1s4.1,9.1,9.1,9.1c-2.5,0-4.6-2-4.6-4.6c0-2.5,2-4.6,4.6-4.6s4.6-2,4.6-4.6
	C68.6,61.5,66.6,59.4,64,59.4z M64,65.4c-0.8,0-1.4-0.6-1.4-1.4c0-0.8,0.6-1.4,1.4-1.4c0.8,0,1.4,0.6,1.4,1.4
	C65.5,64.8,64.8,65.4,64,65.4z"/>
<circle class="st7" cx="64" cy="64" r="1.4"/>
<path d="M64,59.4c2.5,0,4.6,2,4.6,4.6c0,2.5-2,4.6-4.6,4.6s-4.6,2-4.6,4.6c0,2.5,2,4.6,4.6,4.6c5,0,9.1-4.1,9.1-9.1
	S69.1,59.4,64,59.4z M62.6,73.1c0-0.8,0.6-1.4,1.4-1.4c0.8,0,1.4,0.6,1.4,1.4c0,0.8-0.6,1.4-1.4,1.4C63.3,74.5,62.6,73.9,62.6,73.1z
	"/>
<circle class="st7" cx="64" cy="73.1" r="1.4"/>
<circle class="st7" cx="64" cy="64" r="1.4"/>
<circle class="st7" cx="64" cy="73.1" r="1.4"/>
<circle class="st8" cx="64" cy="64" r="1.4"/>
<circle class="st6" cx="64" cy="73.1" r="1.4"/>
</svg>
